<svg width="28" height="17" viewBox="0 0 28 17" fill="none" xmlns="http://www.w3.org/2000/svg">
<path fill-rule="evenodd" clip-rule="evenodd" d="M8.625 0C9.70841 -1.6144e-08 10.7812 0.213393 11.7821 0.627994C12.7831 1.0426 13.6925 1.65029 14.4586 2.41637C15.2247 3.18245 15.8324 4.09193 16.247 5.09286C16.6616 6.0938 16.875 7.16659 16.875 8.25C16.875 9.33341 16.6616 10.4062 16.247 11.4071C15.8324 12.4081 15.2247 13.3175 14.4586 14.0836C13.6925 14.8497 12.7831 15.4574 11.7821 15.872C10.7812 16.2866 9.70841 16.5 8.625 16.5C7.54159 16.5 6.4688 16.2866 5.46786 15.872C4.46693 15.4574 3.55745 14.8497 2.79137 14.0836C2.02529 13.3175 1.4176 12.4081 1.00299 11.4071C0.588393 10.4062 0.375 9.33341 0.375 8.25C0.375 7.16659 0.588393 6.0938 1.00299 5.09286C1.4176 4.09193 2.02529 3.18245 2.79137 2.41637C3.55745 1.65029 4.46693 1.0426 5.46786 0.627994C6.4688 0.213393 7.54159 -1.6144e-08 8.625 0Z" fill="#F22F12"/>
<path fill-rule="evenodd" clip-rule="evenodd" d="M19.625 0.125C24.125 0.25 27.75 3.875 27.625 8.375C27.5 12.875 23.875 16.5 19.375 16.375C14.875 16.25 11.375 12.75 11.375 8.25C11.375 3.75 15.125 0.125 19.625 0.125Z" fill="#F79F1A"/>
<path fill-rule="evenodd" clip-rule="evenodd" d="M11.375 8.25C11.375 5.875 12.375 3.75 14.125 2.25C17.5 5.125 17.75 10.25 14.875 13.5L14.125 14.25C13.2556 13.5119 12.5588 12.5921 12.0836 11.5554C11.6084 10.5187 11.3665 9.39038 11.375 8.25Z" fill="#FF5F01"/>
</svg>
